sources/Design Sources and Simulations/Simulation/simuation.vcd
$date
	Sat May 27 01:22:45 2023
$end
$version
	Icarus Verilog
$end
$timescale
	1ns
$end
$scope module Project_tb $end
$var wire 7 ! segments [6:0] $end
$var wire 4 " enables [3:0] $end
$var wire 1 # IsDone $end
$var reg 8 $ InA [7:0] $end
$var reg 8 % InB [7:0] $end
$var reg 1 & btnL $end
$var reg 1 ' btnR $end
$var reg 1 ( btnStart $end
$var reg 1 ) clk $end
$var integer 32 * i [31:0] $end
$scope module utd $end
$var wire 8 + InA [7:0] $end
$var wire 8 , InB [7:0] $end
$var wire 1 & btnL $end
$var wire 1 ' btnR $end
$var wire 1 ( btnStart $end
$var wire 1 ) clk $end
$var wire 1 - start $end
$var wire 7 . ssd_segments [6:0] $end
$var wire 4 / ssd_enables [3:0] $end
$var wire 16 0 product [15:0] $end
$var wire 1 1 clk_out $end
$var wire 1 2 IsNeg $end
$var wire 1 # IsDone $end
$var wire 20 3 Digits [19:0] $end
$var wire 16 4 Current_Digits [15:0] $end
$var wire 1 5 BtnStart $end
$var wire 1 6 BtnR $end
$var wire 1 7 BtnL $end
$scope module BCD $end
$var wire 16 8 bin [15:0] $end
$var reg 20 9 bcd [19:0] $end
$var integer 32 : i [31:0] $end
$upscope $end
$scope module multiplier $end
$var wire 8 ; InA [7:0] $end
$var wire 8 < InB [7:0] $end
$var wire 1 ) clk $end
$var wire 1 5 start $end
$var wire 16 = product [15:0] $end
$var wire 1 > SNeg $end
$var wire 2 ? SC [1:0] $end
$var wire 2 @ SB [1:0] $end
$var wire 2 A SA [1:0] $end
$var wire 1 2 IsNeg $end
$var wire 1 # IsDone $end
$scope module cu $end
$var wire 1 ) clk $end
$var wire 1 # isDone $end
$var wire 1 5 start $end
$var wire 1 > SNeg $end
$var reg 2 B SA [1:0] $end
$var reg 2 C SB [1:0] $end
$var reg 2 D SC [1:0] $end
$var reg 4 E nextState [3:0] $end
$var reg 4 F presentState [3:0] $end
$upscope $end
$scope module dp $end
$var wire 8 G InA [7:0] $end
$var wire 8 H InB [7:0] $end
$var wire 2 I SA [1:0] $end
$var wire 2 J SB [1:0] $end
$var wire 2 K SC [1:0] $end
$var wire 1 > SNeg $end
$var wire 1 ) clk $end
$var wire 8 L AbsB [7:0] $end
$var wire 8 M AbsA [7:0] $end
$var reg 16 N A [15:0] $end
$var reg 16 O B [15:0] $end
$var reg 1 2 IsNeg $end
$var reg 16 P product [15:0] $end
$upscope $end
$upscope $end
$scope module new_clk $end
$var wire 1 ) clk_in $end
$var wire 1 Q en $end
$var wire 32 R count [31:0] $end
$var reg 1 1 clk_out $end
$scope module clk_counter $end
$var wire 1 ) clk $end
$var wire 1 Q en $end
$var reg 32 S count_out [31:0] $end
$upscope $end
$upscope $end
$scope module pLeft $end
$var wire 1 & SIG $end
$var wire 1 1 clk $end
$var wire 1 T rst $end
$var wire 1 U sync_out $end
$var wire 1 V debouncer_out $end
$var wire 1 7 SIG_out $end
$scope module debouncer $end
$var wire 1 1 clk $end
$var wire 1 & in $end
$var wire 1 V out $end
$var reg 1 W q1 $end
$var reg 1 X q2 $end
$var reg 1 Y q3 $end
$upscope $end
$scope module rd $end
$var wire 1 1 clk $end
$var wire 1 7 z $end
$var wire 1 U x $end
$var reg 2 Z next_state [1:0] $end
$var reg 2 [ state [1:0] $end
$upscope $end
$scope module sync $end
$var wire 1 V SIG $end
$var wire 1 1 clk $end
$var reg 1 \ META $end
$var reg 1 U SIG_1 $end
$upscope $end
$upscope $end
$scope module pRight $end
$var wire 1 ' SIG $end
$var wire 1 1 clk $end
$var wire 1 ] rst $end
$var wire 1 ^ sync_out $end
$var wire 1 _ debouncer_out $end
$var wire 1 6 SIG_out $end
$scope module debouncer $end
$var wire 1 1 clk $end
$var wire 1 ' in $end
$var wire 1 _ out $end
$var reg 1 ` q1 $end
$var reg 1 a q2 $end
$var reg 1 b q3 $end
$upscope $end
$scope module rd $end
$var wire 1 1 clk $end
$var wire 1 6 z $end
$var wire 1 ^ x $end
$var reg 2 c next_state [1:0] $end
$var reg 2 d state [1:0] $end
$upscope $end
$scope module sync $end
$var wire 1 _ SIG $end
$var wire 1 1 clk $end
$var reg 1 e META $end
$var reg 1 ^ SIG_1 $end
$upscope $end
$upscope $end
$scope module pStart $end
$var wire 1 ( SIG $end
$var wire 1 1 clk $end
$var wire 1 f rst $end
$var wire 1 g sync_out $end
$var wire 1 h debouncer_out $end
$var wire 1 5 SIG_out $end
$scope module debouncer $end
$var wire 1 1 clk $end
$var wire 1 ( in $end
$var wire 1 h out $end
$var reg 1 i q1 $end
$var reg 1 j q2 $end
$var reg 1 k q3 $end
$upscope $end
$scope module rd $end
$var wire 1 1 clk $end
$var wire 1 5 z $end
$var wire 1 g x $end
$var reg 2 l next_state [1:0] $end
$var reg 2 m state [1:0] $end
$upscope $end
$scope module sync $end
$var wire 1 h SIG $end
$var wire 1 1 clk $end
$var reg 1 n META $end
$var reg 1 g SIG_1 $end
$upscope $end
$upscope $end
$scope module shift $end
$var wire 1 7 BtnL $end
$var wire 1 6 BtnR $end
$var wire 20 o Digits [19:0] $end
$var wire 1 2 IsNeg $end
$var wire 1 1 clk $end
$var wire 1 - init $end
$var wire 4 p signDigit [3:0] $end
$var wire 16 q Digit_out [15:0] $end
$var reg 2 r nextState [1:0] $end
$var reg 2 s state [1:0] $end
$upscope $end
$scope module ssdrender $end
$var wire 16 t Digit [15:0] $end
$var wire 1 1 clk $end
$var reg 4 u next_ssd_enables [3:0] $end
$var reg 4 v selectedDigit [3:0] $end
$var reg 4 w ssd_enables [3:0] $end
$var reg 7 x ssd_segments [6:0] $end
$upscope $end
$upscope $end
$upscope $end
$enddefinitions $end
#0
$dumpvars
b1 x
b1110 w
b0 v
b1101 u
b1011000000000000 t
b0 s
b0 r
b1011000000000000 q
b1011 p
b0 o
0n
b0 m
b1 l
0k
0j
0i
0h
0g
zf
0e
b0 d
b1 c
0b
0a
0`
0_
0^
z]
0\
b0 [
b1 Z
0Y
0X
0W
0V
0U
zT
b0 S
b0 R
1Q
b0 P
b0 O
b0 N
b0 M
b0 L
b0 K
b11 J
b11 I
b0 H
b0 G
b1001 F
b1001 E
b0 D
b11 C
b11 B
b11 A
b11 @
b0 ?
0>
b0 =
b0 <
b0 ;
b11111111111111111111111111111111 :
b0 9
b0 8
07
06
05
b1011000000000000 4
b0 3
02
01
b0 0
b1110 /
b1 .
0-
b0 ,
b0 +
b0 *
0)
0(
0'
0&
b0 %
b0 $
1#
b1110 "
b1 !
$end
#20
b1011 u
b1 m
b1 [
b1 d
b1101 "
b1101 /
b1101 w
11
b1 *
1)
#40
b10 *
0)
#60
01
b11 L
b101 M
b11 %
b11 ,
b11 <
b11 H
b11111011 $
b11111011 +
b11111011 ;
b11111011 G
b11 *
1)
#80
b100 *
0)
#100
b111 u
b1011 "
b1011 /
b1011 w
11
b101 *
1)
#120
b110 *
0)
#140
01
b111 *
1)
#160
b1000 *
0)
#180
b1111111 !
b1111111 .
b1111111 x
b1011 v
b1110 u
b111 "
b111 /
b111 w
11
b1001 *
1)
#200
b1010 *
0)
#220
01
b1011 *
1)
#240
b1100 *
0)
#260
b1 !
b1 .
b1 x
b0 v
b1101 u
b1110 "
b1110 /
b1110 w
1i
11
1(
b1101 *
1)
#280
b1110 *
0)
#300
01
b1111 *
1)
#320
b10000 *
0)
#340
b1011 u
1j
b1101 "
b1101 /
b1101 w
11
b10001 *
1)
#360
b10010 *
0)
#380
01
b10011 *
1)
#400
b10100 *
0)
#420
b111 u
1h
b1011 "
b1011 /
b1011 w
1k
11
b10101 *
1)
#440
b10110 *
0)
#460
01
b10111 *
1)
#480
b11000 *
0)
#500
b1111111 !
b1111111 .
b1111111 x
b1011 v
b1110 u
1n
b111 "
b111 /
b111 w
11
b11001 *
1)
#520
b11010 *
0)
#540
01
b11011 *
1)
#560
b11100 *
0)
#580
b1 !
b1 .
b1 x
b0 v
b1101 u
b10 l
b1110 "
b1110 /
b1110 w
1g
11
b11101 *
1)
#600
b11110 *
0)
#620
01
b11111 *
1)
#640
b100000 *
0)
#660
0h
1-
b1010 E
b0 l
15
b1011 u
0i
b10 m
b1101 "
b1101 /
b1101 w
11
0(
b100001 *
1)
#680
b100010 *
0)
#700
0-
b0 A
b0 B
b0 I
b0 @
b0 C
b0 J
b10 ?
b10 D
b10 K
b0 E
0#
1>
b1010 F
01
b100011 *
1)
#720
b100100 *
0)
#740
b111 u
05
b1011 "
b1011 /
b1011 w
b0 m
0n
0j
b1010000000000000 4
b1010000000000000 q
b1010000000000000 t
b1 ?
b1 D
b1 K
b1 @
b1 C
b1 J
b10 A
b10 B
b10 I
b1 E
b1010 p
11
0>
b0 F
b101 N
b11 O
12
b100101 *
1)
#760
b100110 *
0)
#780
b1010000000000101 4
b1010000000000101 q
b1010000000000101 t
b101 3
b101 9
b101 o
b11111111111111111111111111111111 :
b10 E
b101 0
b101 8
b101 =
b101 P
b1 O
b1010 N
b1 F
01
1&
b100111 *
1)
#800
b101000 *
0)
#820
b1111110 !
b1111110 .
b1111110 x
b1 l
b1010 v
b1110 u
0k
0g
1W
b111 "
b111 /
b111 w
b1010000000010101 4
b1010000000010101 q
b1010000000010101 t
b11 E
b11111111111111111111111111111111 :
b10101 3
b10101 9
b10101 o
11
b10 F
b10100 N
b0 O
b1111 0
b1111 8
b1111 =
b1111 P
b101001 *
1)
#840
b101010 *
0)
#860
b100 E
b101000 N
b11 F
01
b101011 *
1)
#880
b101100 *
0)
#900
b100100 !
b100100 .
b100100 x
b101 v
b1101 u
b1110 "
b1110 /
b1110 w
1X
b1 m
b101 E
11
b100 F
b1010000 N
b101101 *
1)
#920
b101110 *
0)
#940
b110 E
b10100000 N
b101 F
01
b101111 *
1)
#960
b110000 *
0)
#980
b1001111 !
b1001111 .
b1001111 x
1V
b1 v
b1011 u
1Y
b1101 "
b1101 /
b1101 w
b111 E
11
b110 F
b101000000 N
b110001 *
1)
#1000
b110010 *
0)
#1020
b1000 E
b1010000000 N
b111 F
01
b110011 *
1)
#1040
b110100 *
0)
#1060
b1 !
b1 .
b1 x
b0 v
b111 u
b1011 "
b1011 /
b1011 w
1\
b0 ?
b0 D
b0 K
b11 @
b11 C
b11 J
b11 A
b11 B
b11 I
b1001 E
1#
11
b1000 F
b10100000000 N
b110101 *
1)
#1080
b110110 *
0)
#1100
b1001 F
01
0&
b110111 *
1)
#1120
b111000 *
0)
#1140
0V
b1111110 !
b1111110 .
b1111110 x
b10 Z
b1010 v
b1110 u
0W
1U
b111 "
b111 /
b111 w
11
b111001 *
1)
#1160
b111010 *
0)
#1180
01
b111011 *
1)
#1200
b111100 *
0)
#1220
b100100 !
b100100 .
b100100 x
b1 r
b101 v
b1101 u
b0 Z
17
b1110 "
b1110 /
b1110 w
b10 [
0\
0X
11
b111101 *
1)
#1240
b111110 *
0)
#1260
01
b111111 *
1)
#1280
b1000000 *
0)
#1300
b1 !
b1 .
b1 x
b1 Z
07
b1010000000000001 4
b1010000000000001 q
b1010000000000001 t
b1 r
b0 v
b1011 u
0Y
0U
b0 [
b1 s
b1101 "
b1101 /
b1101 w
11
b1000001 *
1)
#1320
b1000010 *
0)
#1340
01
b1000011 *
1)
#1360
b1000100 *
0)
#1380
b111 u
b1011 "
b1011 /
b1011 w
b1 [
1W
11
1&
b1000101 *
1)
#1400
b1000110 *
0)
#1420
01
b1000111 *
1)
#1440
b1001000 *
0)
#1460
b1111110 !
b1111110 .
b1111110 x
b1010 v
b1110 u
1X
b111 "
b111 /
b111 w
11
b1001001 *
1)
#1480
b1001010 *
0)
#1500
01
b1001011 *
1)
#1520
b1001100 *
0)
#1540
b1001111 !
b1001111 .
b1001111 x
b1 v
b1101 u
1V
b1110 "
b1110 /
b1110 w
1Y
11
b1001101 *
1)
#1560
b1001110 *
0)
#1580
01
b1001111 *
1)
#1600
b1010000 *
0)
#1620
b1 !
b1 .
b1 x
b0 v
b1011 u
1\
b1101 "
b1101 /
b1101 w
11
b1010001 *
1)
#1640
b1010010 *
0)
#1660
01
b1010011 *
1)
#1680
b1010100 *
0)
#1700
b111 u
b10 Z
b1011 "
b1011 /
b1011 w
1U
11
b1010101 *
1)
#1720
b1010110 *
0)
#1740
01
b1010111 *
1)
#1760
b1011000 *
0)
#1780
b10 r
b1111110 !
b1111110 .
b1111110 x
b0 Z
17
b1010 v
b1110 u
b10 [
b111 "
b111 /
b111 w
11
b1011001 *
1)
#1800
b1011010 *
0)
#1820
01
b1011011 *
1)
#1840
b1011100 *
0)
#1860
b1 !
b1 .
b1 x
0V
b0 v
b1101 u
b1010000000000000 4
b1010000000000000 q
b1010000000000000 t
07
b1110 "
b1110 /
b1110 w
b10 s
b0 [
0W
11
0&
b1011101 *
1)
#1880
b1011110 *
0)
#1900
01
b1011111 *
1)
#1920
b1100000 *
0)
#1940
b1011 u
0X
0\
b1101 "
b1101 /
b1101 w
11
b1100001 *
1)
#1960
b1100010 *
0)
#1980
01
b1100011 *
1)
#2000
b1100100 *
0)
#2020
b111 u
b1 Z
b1011 "
b1011 /
b1011 w
0U
0Y
11
b1100101 *
1)
#2040
b1100110 *
0)
#2060
01
b1100111 *
1)
#2080
b1101000 *
0)
#2100
b1111110 !
b1111110 .
b1111110 x
b1010 v
b1110 u
b1 [
b111 "
b111 /
b111 w
11
b1101001 *
1)
#2120
b1101010 *
0)
#2140
01
b1101011 *
1)
#2160
b1101100 *
0)
#2180
b1 !
b1 .
b1 x
b0 v
b1101 u
b1110 "
b1110 /
b1110 w
1`
11
1'
b1101101 *
1)
#2200
b1101110 *
0)
#2220
01
b1101111 *
1)
#2240
b1110000 *
0)
#2260
b1011 u
1a
b1101 "
b1101 /
b1101 w
11
b1110001 *
1)
#2280
b1110010 *
0)
#2300
01
b1110011 *
1)
#2320
b1110100 *
0)
#2340
b111 u
1_
b1011 "
b1011 /
b1011 w
1b
11
b1110101 *
1)
#2360
b1110110 *
0)
#2380
01
b1110111 *
1)
#2400
b1111000 *
0)
#2420
b1111110 !
b1111110 .
b1111110 x
b1010 v
b1110 u
1e
b111 "
b111 /
b111 w
11
b1111001 *
1)
#2440
b1111010 *
0)
#2460
01
b1111011 *
1)
#2480
b1111100 *
0)
#2500
b1 !
b1 .
b1 x
b0 v
b1101 u
b10 c
b1110 "
b1110 /
b1110 w
1^
11
b1111101 *
1)
#2520
b1111110 *
0)
#2540
01
0'
b1111111 *
1)
#2560
b10000000 *
0)
#2580
0_
b1 r
b0 c
16
b1011 u
0`
b10 d
b1101 "
b1101 /
b1101 w
11
b10000001 *
1)
#2600
b10000010 *
0)
#2620
01
b10000011 *
1)
#2640
b10000100 *
0)
#2660
b111 u
b1010000000000001 4
b1010000000000001 q
b1010000000000001 t
06
b1011 "
b1011 /
b1011 w
b1 s
b0 d
0e
0a
11
b10000101 *
1)
#2680
b10000110 *
0)
#2700
01
b10000111 *
1)
#2720
b10001000 *
0)
#2740
b1111110 !
b1111110 .
b1111110 x
b1 c
b1010 v
b1110 u
0b
0^
b111 "
b111 /
b111 w
11
b10001001 *
1)
#2760
b10001010 *
0)
#2780
01
b10001011 *
1)
#2800
b10001100 *
0)
#2820
b1001111 !
b1001111 .
b1001111 x
b1 v
b1101 u
b1110 "
b1110 /
b1110 w
b1 d
11
b10001101 *
1)
#2840
b10001110 *
0)
#2860
01
b10001111 *
1)
#2880
b10010000 *
0)
#2900
b1 !
b1 .
b1 x
b0 v
b1011 u
1`
b1101 "
b1101 /
b1101 w
11
1'
b10010001 *
1)
#2920
b10010010 *
0)
#2940
01
b10010011 *
1)
#2960
b10010100 *
0)
#2980
b111 u
b1011 "
b1011 /
b1011 w
1a
11
b10010101 *
1)
#3000
b10010110 *
0)
#3020
01
b10010111 *
1)
#3040
b10011000 *
0)
#3060
b1111110 !
b1111110 .
b1111110 x
1_
b1010 v
b1110 u
1b
b111 "
b111 /
b111 w
11
b10011001 *
1)
#3080
b10011010 *
0)
#3100
01
b10011011 *
1)
#3120
b10011100 *
0)
#3140
b1001111 !
b1001111 .
b1001111 x
b1 v
b1101 u
b1110 "
b1110 /
b1110 w
1e
11
b10011101 *
1)
#3160
b10011110 *
0)
#3180
01
b10011111 *
1)
#3200
b10100000 *
0)
#3220
b1 !
b1 .
b1 x
b10 c
b0 v
b1011 u
1^
b1101 "
b1101 /
b1101 w
11
b10100001 *
1)
#3240
b10100010 *
0)
#3260
01
b10100011 *
1)
#3280
b10100100 *
0)
#3300
b0 r
b111 u
b0 c
16
b1011 "
b1011 /
b1011 w
b10 d
11
b10100101 *
1)
#3320
b10100110 *
0)
#3340
01
b10100111 *
1)
#3360
b10101000 *
0)
#3380
b1111110 !
b1111110 .
b1111110 x
06
b1010000000010101 4
b1010000000010101 q
b1010000000010101 t
b1010 v
b1110 u
b0 d
b0 s
b111 "
b111 /
b111 w
11
b10101001 *
1)
#3400
b10101010 *
0)
#3420
01
b10101011 *
1)
#3440
b10101100 *
0)
#3460
b100100 !
b100100 .
b100100 x
b101 v
b1101 u
b1110 "
b1110 /
b1110 w
11
b10101101 *
1)
#3480
b10101110 *
0)
#3500
01
b10101111 *
1)
#3520
b10110000 *
0)
#3540
0_
b1001111 !
b1001111 .
b1001111 x
b1 v
b1011 u
0`
b1101 "
b1101 /
b1101 w
11
0'
b10110001 *
1)
#3560
b10110010 *
0)
#3580
01
b10 L
b1110101 M
b11111110 %
b11111110 ,
b11111110 <
b11111110 H
b1110101 $
b1110101 +
b1110101 ;
b1110101 G
b10110011 *
1)
#3600
b10110100 *
0)
#3620
b1 !
b1 .
b1 x
b0 v
b111 u
b1011 "
b1011 /
b1011 w
0e
0a
11
b10110101 *
1)
#3640
b10110110 *
0)
#3660
01
b10110111 *
1)
#3680
b10111000 *
0)
#3700
b1111110 !
b1111110 .
b1111110 x
b1 c
b1010 v
b1110 u
0b
0^
b111 "
b111 /
b111 w
11
b10111001 *
1)
#3720
b10111010 *
0)
#3740
01
b10111011 *
1)
#3760
b10111100 *
0)
#3780
b100100 !
b100100 .
b100100 x
b101 v
b1101 u
b1110 "
b1110 /
b1110 w
b1 d
1i
11
1(
b10111101 *
1)
#3800
b10111110 *
0)
#3820
01
b10111111 *
1)
#3840
b11000000 *
0)
#3860
b1001111 !
b1001111 .
b1001111 x
b1 v
b1011 u
1j
b1101 "
b1101 /
b1101 w
11
b11000001 *
1)
#3880
b11000010 *
0)
#3900
01
b11000011 *
1)
#3920
b11000100 *
0)
#3940
b1 !
b1 .
b1 x
b0 v
b111 u
1h
b1011 "
b1011 /
b1011 w
1k
11
b11000101 *
1)
#3960
b11000110 *
0)
#3980
01
b11000111 *
1)
#4000
b11001000 *
0)
#4020
b1111110 !
b1111110 .
b1111110 x
b1010 v
b1110 u
1n
b111 "
b111 /
b111 w
11
b11001001 *
1)
#4040
b11001010 *
0)
#4060
01
b11001011 *
1)
#4080
b11001100 *
0)
#4100
b100100 !
b100100 .
b100100 x
b101 v
b1101 u
b10 l
b1110 "
b1110 /
b1110 w
1g
11
b11001101 *
1)
#4120
b11001110 *
0)
#4140
01
b11001111 *
1)
#4160
b11010000 *
0)
#4180
1-
b1010 E
b1001111 !
b1001111 .
b1001111 x
b0 l
15
b1 v
b1011 u
b10 m
b1101 "
b1101 /
b1101 w
11
b11010001 *
1)
#4200
b11010010 *
0)
#4220
0-
b10 ?
b10 D
b10 K
b0 @
b0 C
b0 J
b0 A
b0 B
b0 I
b0 E
0#
1>
b1010 F
01
b11010011 *
1)
#4240
b11010100 *
0)
#4260
b111 u
05
b1011 "
b1011 /
b1011 w
b0 m
b1 !
b1 .
b1 x
b0 v
b1010000000000000 4
b1010000000000000 q
b1010000000000000 t
b10 A
b10 B
b10 I
b1 @
b1 C
b1 J
b1 ?
b1 D
b1 K
b1 E
b11111111111111111111111111111111 :
b0 3
b0 9
b0 o
11
0>
b0 F
b1110101 N
b10 O
b0 0
b0 8
b0 =
b0 P
b11010101 *
1)
#4280
b11010110 *
0)
#4300
b10 E
b1 O
b11101010 N
b1 F
01
b11010111 *
1)
#4320
b11011000 *
0)
#4340
b1110 u
b111 "
b111 /
b111 w
b1111110 !
b1111110 .
b1111110 x
b1010 v
b1010001000110100 4
b1010001000110100 q
b1010001000110100 t
b11 E
b1000110100 3
b1000110100 9
b1000110100 o
b11111111111111111111111111111111 :
11
b10 F
b111010100 N
b0 O
b11101010 0
b11101010 8
b11101010 =
b11101010 P
b11011001 *
1)
#4360
b11011010 *
0)
#4380
b100 E
b1110101000 N
b11 F
01
b11011011 *
1)
#4400
b11011100 *
0)
#4420
b1001100 !
b1001100 .
b1001100 x
b100 v
b1101 u
b1110 "
b1110 /
b1110 w
b101 E
11
b100 F
b11101010000 N
b11011101 *
1)
#4440
b11011110 *
0)
#4460
b110 E
b111010100000 N
b101 F
01
b11011111 *
1)
#4480
b11100000 *
0)
#4500
b110 !
b110 .
b110 x
b11 v
b1011 u
b1101 "
b1101 /
b1101 w
b111 E
11
b110 F
b1110101000000 N
b11100001 *
1)
#4520
b11100010 *
0)
#4540
b1000 E
b11101010000000 N
b111 F
01
b11100011 *
1)
#4560
b11100100 *
0)
#4580
b10010 !
b10010 .
b10010 x
0h
b10 v
b111 u
b1011 "
b1011 /
b1011 w
0i
b11 A
b11 B
b11 I
b11 @
b11 C
b11 J
b0 ?
b0 D
b0 K
b1001 E
1#
11
b1000 F
b111010100000000 N
b1111111 L
b1111111 M
b1111111 %
b1111111 ,
b1111111 <
b1111111 H
b1111111 $
b1111111 +
b1111111 ;
b1111111 G
0(
b11100101 *
1)
#4600
b11100110 *
0)
#4620
b1001 F
01
b11100111 *
1)
#4640
b11101000 *
0)
#4660
b1111110 !
b1111110 .
b1111110 x
b1010 v
b1110 u
0j
0n
b111 "
b111 /
b111 w
11
b11101001 *
1)
#4680
b11101010 *
0)
#4700
01
b11101011 *
1)
#4720
b11101100 *
0)
#4740
b1001100 !
b1001100 .
b1001100 x
b100 v
b1101 u
b1 l
b1110 "
b1110 /
b1110 w
0g
0k
11
b11101101 *
1)
#4760
b11101110 *
0)
#4780
01
b11101111 *
1)
#4800
b11110000 *
0)
#4820
b110 !
b110 .
b110 x
b11 v
b1011 u
b1 m
b1101 "
b1101 /
b1101 w
11
b11110001 *
1)
#4840
b11110010 *
0)
#4860
01
b11110011 *
1)
#4880
b11110100 *
0)
#4900
b10010 !
b10010 .
b10010 x
b10 v
b111 u
b1011 "
b1011 /
b1011 w
11
b11110101 *
1)
#4920
b11110110 *
0)
#4940
01
b11110111 *
1)
#4960
b11111000 *
0)
#4980
b1111110 !
b1111110 .
b1111110 x
b1010 v
b1110 u
b111 "
b111 /
b111 w
11
b11111001 *
1)
#5000
b11111010 *
0)
#5020
01
b11111011 *
1)
#5040
b11111100 *
0)
#5060
b1001100 !
b1001100 .
b1001100 x
b100 v
b1101 u
b1110 "
b1110 /
b1110 w
11
b11111101 *
1)
#5080
b11111110 *
0)
#5100
01
b11111111 *
1)
#5120
b100000000 *
0)
#5140
b110 !
b110 .
b110 x
b11 v
b1011 u
b1101 "
b1101 /
b1101 w
11
b100000001 *
1)
#5160
b100000010 *
0)
#5180
01
1(
b100000011 *
1)
#5200
b100000100 *
0)
#5220
b10010 !
b10010 .
b10010 x
b10 v
b111 u
b1011 "
b1011 /
b1011 w
1i
11
b100000101 *
1)
#5240
b100000110 *
0)
#5260
01
b100000111 *
1)
#5280
b100001000 *
0)
#5300
b1111110 !
b1111110 .
b1111110 x
b1010 v
b1110 u
1j
b111 "
b111 /
b111 w
11
b100001001 *
1)
#5320
b100001010 *
0)
#5340
01
b100001011 *
1)
#5360
b100001100 *
0)
#5380
b1001100 !
b1001100 .
b1001100 x
b100 v
b1101 u
1h
b1110 "
b1110 /
b1110 w
1k
11
b100001101 *
1)
#5400
b100001110 *
0)
#5420
01
b100001111 *
1)
#5440
b100010000 *
0)
#5460
b110 !
b110 .
b110 x
b11 v
b1011 u
1n
b1101 "
b1101 /
b1101 w
11
b100010001 *
1)
#5480
b100010010 *
0)
#5500
01
b100010011 *
1)
#5520
b100010100 *
0)
#5540
b10010 !
b10010 .
b10010 x
b10 v
b111 u
b10 l
b1011 "
b1011 /
b1011 w
1g
11
b100010101 *
1)
#5560
b100010110 *
0)
#5580
01
b100010111 *
1)
#5600
b100011000 *
0)
#5620
1-
b1010 E
b1111110 !
b1111110 .
b1111110 x
b0 l
15
b1010 v
b1110 u
b10 m
b111 "
b111 /
b111 w
11
b100011001 *
1)
#5640
b100011010 *
0)
#5660
0-
b0 A
b0 B
b0 I
b0 @
b0 C
b0 J
b10 ?
b10 D
b10 K
b0 E
0#
1>
b1010 F
01
b100011011 *
1)
#5680
b100011100 *
0)
#5700
b1101 u
05
b1110 "
b1110 /
b1110 w
b0 m
b1 !
b1 .
b1 x
b0 v
b1011000000000000 4
b1011000000000000 q
b1011000000000000 t
b1 ?
b1 D
b1 K
b1 @
b1 C
b1 J
b10 A
b10 B
b10 I
b1 E
b11111111111111111111111111111111 :
b0 3
b0 9
b0 o
b1011 p
11
0>
b0 F
b1111111 N
b1111111 O
b0 0
b0 8
b0 =
b0 P
02
b100011101 *
1)
#5720
b100011110 *
0)
#5740
b1111 !
b1111 .
b1111 x
b111 v
b1011000100100111 4
b1011000100100111 q
b1011000100100111 t
b100100111 3
b100100111 9
b100100111 o
b11111111111111111111111111111111 :
b10 E
b1111111 0
b1111111 8
b1111111 =
b1111111 P
b111111 O
b11111110 N
b1 F
01
b100011111 *
1)
#5760
b100100000 *
0)
#5780
b1011 u
b1101 "
b1101 /
b1101 w
b0 !
b0 .
b0 x
b1000 v
b1011001110000001 4
b1011001110000001 q
b1011001110000001 t
b11 E
b11111111111111111111111111111111 :
b1110000001 3
b1110000001 9
b1110000001 o
11
b10 F
b111111100 N
b11111 O
b101111101 0
b101111101 8
b101111101 =
b101111101 P
b100100001 *
1)
#5800
b100100010 *
0)
#5820
b1011100010001001 4
b1011100010001001 q
b1011100010001001 t
b11111111111111111111111111111111 :
b100010001001 3
b100010001001 9
b100010001001 o
b100 E
b1101111001 0
b1101111001 8
b1101111001 =
b1101111001 P
b1111 O
b1111111000 N
b11 F
01
b100100011 *
1)
#5840
b100100100 *
0)
#5860
b111 u
b1011 "
b1011 /
b1011 w
b100 !
b100 .
b100 x
b1001 v
b1011100100000101 4
b1011100100000101 q
b1011100100000101 t
b101 E
b11111111111111111111111111111111 :
b1100100000101 3
b1100100000101 9
b1100100000101 o
11
b100 F
b11111110000 N
b111 O
b11101110001 0
b11101110001 8
b11101110001 =
b11101110001 P
b100100101 *
1)
#5880
b100100110 *
0)
#5900
b1011100100110111 4
b1011100100110111 q
b1011100100110111 t
b11111111111111111111111111111111 :
b11100100110111 3
b11100100110111 9
b11100100110111 o
b110 E
b111101100001 0
b111101100001 8
b111101100001 =
b111101100001 P
b11 O
b111111100000 N
b101 F
01
b100100111 *
1)
#5920
b100101000 *
0)
#5940
b1110 u
b111 "
b111 /
b111 w
b1111111 !
b1111111 .
b1111111 x
b1011 v
b1011000000000001 4
b1011000000000001 q
b1011000000000001 t
b111 E
b11111111111111111111111111111111 :
b1000000000000001 3
b1000000000000001 9
b1000000000000001 o
11
b110 F
b1111111000000 N
b1 O
b1111101000001 0
b1111101000001 8
b1111101000001 =
b1111101000001 P
b100101001 *
1)
#5960
b100101010 *
0)
#5980
b1011000100101001 4
b1011000100101001 q
b1011000100101001 t
b11111111111111111111111111111111 :
b10110000100101001 3
b10110000100101001 9
b10110000100101001 o
b1000 E
b11111100000001 0
b11111100000001 8
b11111100000001 =
b11111100000001 P
b0 O
b11111110000000 N
b111 F
01
b100101011 *
1)
#6000
b100101100 *
0)
#6020
b100 !
b100 .
b100 x
b1001 v
b1101 u
b1110 "
b1110 /
b1110 w
b0 ?
b0 D
b0 K
b11 @
b11 C
b11 J
b11 A
b11 B
b11 I
b1001 E
1#
11
b1000 F
b111111100000000 N
b100101101 *
1)
#6040
b100101110 *
0)
#6060
b1001 F
01
b100101111 *
1)
#6080
b100110000 *
0)
#6100
b10010 !
b10010 .
b10010 x
b10 v
b1011 u
b1101 "
b1101 /
b1101 w
11
b100110001 *
1)
#6120
b100110010 *
0)
#6140
01
b100110011 *
1)
#6160
b100110100 *
0)
#6180
b1001111 !
b1001111 .
b1001111 x
b1 v
b111 u
b1011 "
b1011 /
b1011 w
11
b100110101 *
1)
#6200
b100110110 *
0)
#6220
01
b100110111 *
1)
#6240
b100111000 *
0)
#6260
b1111111 !
b1111111 .
b1111111 x
b1011 v
b1110 u
b111 "
b111 /
b111 w
11
b100111001 *
1)
#6280
b100111010 *
0)
#6300
01
b100111011 *
1)
#6320
b100111100 *
0)
#6340
b100 !
b100 .
b100 x
b1001 v
b1101 u
b1110 "
b1110 /
b1110 w
11
b100111101 *
1)
#6360
b100111110 *
0)
#6380
01
b100111111 *
1)
#6400
b101000000 *
0)
#6420
b10010 !
b10010 .
b10010 x
b10 v
b1011 u
b1101 "
b1101 /
b1101 w
11
b101000001 *
1)
#6440
b101000010 *
0)
#6460
01
b101000011 *
1)
#6480
b101000100 *
0)
#6500
b1001111 !
b1001111 .
b1001111 x
b1 v
b111 u
b1011 "
b1011 /
b1011 w
11
b101000101 *
1)
#6520
b101000110 *
0)
#6540
01
b101000111 *
1)
#6560
b101001000 *
0)
#6580
b1111111 !
b1111111 .
b1111111 x
b1011 v
b1110 u
b111 "
b111 /
b111 w
11
b101001001 *
1)
#6600
b101001010 *
0)
#6620
01
b101001011 *
1)
#6640
b101001100 *
0)
#6660
b100 !
b100 .
b100 x
b1001 v
b1101 u
b1110 "
b1110 /
b1110 w
11
b101001101 *
1)
#6680
b101001110 *
0)
#6700
01
b101001111 *
1)
#6720
b101010000 *
0)
